1.2e+06
InternetDrone
0
6
16
16
0
0
1.29889e+06
Investments
1
9
5
16
0
0
123.4
Groceries
0
12
13
16
0
0
45
Pizza
0
6
9
16
0
0
1500
Hotel
0
4
20
16
0
0
567
Airfare
0
5
19
16
0
0
40000
Hospital
0
1
16
16
0
0
4500
BusinessExpenses
1
2
23
16
0
0
