400
Rent
1
1
4
16
400
Rent
1
2
4
16
400
Rent
1
3
4
16
400
Rent
1
4
4
16
400
Rent
1
5
4
16
400
Rent
1
6
4
16
400
Rent
1
7
4
16
400
Rent
1
8
4
16
400
Rent
1
9
4
16
400
Rent
1
10
4
16
400
Rent
1
11
4
16
400
Rent
1
12
4
16
101.25
Groceries
1
1
31
16
66.21
Groceries
1
2
12
16
15.16
Groceries
1
3
3
16
41.22
Gas
1
2
8
16
19.16
Gas
1
1
5
16
11
Movies
0
4
6
16
5.5
Coffee
0
6
12
16
